{
	"serverPort": 8080,
	"ircNick": "Lt Dan",
	"downloadDir": "downloads",
	"maxDownloads": 8,
	"maxNetworkDownloads": 4,
	"maxBotDownloads": 2,
	"fileExpiration": 3,
	"autoStartDownloads": false,
	"cleanNames": true,
	"checkCRC": true
}